[gd_scene load_steps=3 format=2]

[ext_resource path="res://src/Plant.tscn" type="PackedScene" id=1]
[ext_resource path="res://src/plants/Bean.gd" type="Script" id=2]

[node name="Bean" instance=ExtResource( 1 )]
script = ExtResource( 2 )
