[gd_scene load_steps=2 format=2]

[ext_resource path="res://src/Plant.gd" type="Script" id=1]

[node name="Plant" type="Node2D"]
script = ExtResource( 1 )

[node name="Sprite" type="Sprite" parent="."]
scale = Vector2( 1.5, 1.5 )

[node name="Height" type="RichTextLabel" parent="."]
margin_left = -4.0
margin_top = 26.0
margin_right = 36.0
margin_bottom = 66.0
hint_tooltip = "Height"
mouse_filter = 1
text = "0"
fit_content_height = true
