[gd_scene load_steps=4 format=2]

[ext_resource path="res://assets/sun.png" type="Texture" id=1]
[ext_resource path="res://src/Sun.gd" type="Script" id=2]

[sub_resource type="Curve2D" id=1]
_data = {
"points": PoolVector2Array( -0.840896, -10.0908, 0.840896, 10.0908, -3, -11, 0, 0, 0, 0, 9, -74, 0, 0, 0, 0, 27, -132, 0, 0, 0, 0, 45, -164, 0, 0, 0, 0, 71, -199, 0, 0, 0, 0, 100, -222, 0, 0, 0, 0, 136, -236, 0, 0, 0, 0, 172, -247, 0, 0, 0, 0, 208, -257, 0, 0, 0, 0, 243, -265, 0, 0, 0, 0, 272, -266, 0, 0, 0, 0, 317, -265, 0, 0, 0, 0, 355, -259, 0, 0, 0, 0, 389, -251, 0, 0, 0, 0, 429, -238, 0, 0, 0, 0, 455, -224, 0, 0, 0, 0, 478, -206, 0, 0, 0, 0, 506, -184, 0, 0, 0, 0, 543, -146, 0, 0, 0, 0, 559, -119, 0, 0, 0, 0, 568, -97, 0, 0, 0, 0, 579, -63, 0, 0, 0, 0, 584, -17, 0, 0, 0, 0, 589, 78 )
}

[node name="Sun" type="Node2D"]
script = ExtResource( 2 )

[node name="Path2D" type="Path2D" parent="."]
curve = SubResource( 1 )

[node name="PathFollow2D" type="PathFollow2D" parent="Path2D"]
position = Vector2( -3, -11 )
rotation = -1.3641
rotate = false
lookahead = 128.411

[node name="Sprite" type="Sprite" parent="Path2D/PathFollow2D"]
rotation = -0.244346
scale = Vector2( 2, 2 )
texture = ExtResource( 1 )
